{
  "$schema": "http://json-schema.org/schema",
  "type": "object",
  "description": "A payment request item",
  "id": "PaymentRequest",
  "additionalProperties": false,
  "properties": {
    "paymentReference": {
      "type": "long",
      "required": true
    },
    "value": {
      "type": "long",
      "required": true
    }
  }
}